…
Now, let's take a look at what this data object contains:


~~~
ambient_pollution_dirty
~~~
{: .language-r}



~~~
# A tibble: 9,660 × 3
   location_name year_id median
   <chr>           <dbl>  <dbl>
 1 Global           1990   40.0
 2 Global           1995   38.9
 3 Global           2000   40.6
 4 Global           2005   40.6
 5 Global           2010   42.7
 6 Global           2011   44.4
 7 Global           2012   46.1
 8 Global           2013   47.1
 9 Global           2014   47.3
10 Global           2015   46.1
# ℹ 9,650 more rows
…
~~~
filter(ambient_pollution_dirty, year_id == 1990)
~~~
{: .language-r}



~~~
# A tibble: 690 × 3
   location_name                          year_id median
   <chr>                                    <dbl>  <dbl>
 1 Global                                    1990   40.0
 2 Southeast Asia, East Asia, and Oceania    1990   41.3
 3 East Asia                                 1990   45.8
 4 China                                     1990   46.4
 5 Democratic People's Republic of Korea     1990   39.3
 6 Taiwan                                    1990   21.7
 7 Southeast Asia                            1990   28.3
 8 Cambodia                                  1990   26.5
 9 Indonesia                                 1990   25.5
10 Lao People's Democratic Republic          1990   25.1
# ℹ 680 more rows
…
Okay, so it looks like we have 690 observations for the year 1990. Some of these are countries, some are regions of the world, and we have at least one global measurement.

Before we move on, I want to show you a tool called a *pipe operator* that will be really helpful as we continue. Instead of including the data object as an argument, we can use the *pipe operator* `%>%` to pass the data value into the `filter` function. You can think of `%>%` as another way to type "and then."


~~~
ambient_pollution_dirty %>% filter(year_id == 1990)
~~~
{: .language-r}



~~~
# A tibble: 690 × 3
   location_name                          year_id median
   <chr>                                    <dbl>  <dbl>
 1 Global                                    1990   40.0
 2 Southeast Asia, East Asia, and Oceania    1990   41.3
 3 East Asia                                 1990   45.8
 4 China                                     1990   46.4
 5 Democratic People's Republic of Korea     1990   39.3
 6 Taiwan                                    1990   21.7
 7 Southeast Asia                            1990   28.3
 8 Cambodia                                  1990   26.5
 9 Indonesia                                 1990   25.5
10 Lao People's Democratic Republic          1990   25.1
# ℹ 680 more rows
…
This lets us "chain" together multiple functions, which will be helpful later. Note that the pipe (`%>%`) is a bit different from using the ggplot plus (`+`). Pipes take the output from the left side and use it as input to the right side. In other words, it tells R to do the function on the left *and then* the function on the right. In contrast, plusses layer on additional information (right side) to a preexisting plot (left side). 
 
We can also add an <kbd>Enter</kbd> to make it look nicer:  


~~~
ambient_pollution_dirty %>%
  filter(year_id == 1990)
~~~
{: .language-r}



~~~
# A tibble: 690 × 3
   location_name                          year_id median
   <chr>                                    <dbl>  <dbl>
 1 Global                                    1990   40.0
 2 Southeast Asia, East Asia, and Oceania    1990   41.3
 3 East Asia                                 1990   45.8
 4 China                                     1990   46.4
 5 Democratic People's Republic of Korea     1990   39.3
 6 Taiwan                                    1990   21.7
 7 Southeast Asia                            1990   28.3
 8 Cambodia                                  1990   26.5
 9 Indonesia                                 1990   25.5
10 Lao People's Democratic Republic          1990   25.1
# ℹ 680 more rows
…
> We just used the View tab to sort our count data, but how could you use code to sort the `median` column? Try to figure it out by searching on the Internet. 
> 
> > ## Solution: 
> > 
> > ~~~
> > ambient_pollution_dirty %>%
> >   filter(year_id == 1990) %>% 
> >   arrange(desc(median)) 
> > ~~~
> > {: .language-r}
> > 
> > 
> > 
> > ~~~
> > # A tibble: 690 × 3
> >    location_name year_id median
> >    <chr>           <dbl>  <dbl>
> >  1 Qatar            1990   78.2
> >  2 Niger            1990   70.6
> >  3 Nigeria          1990   69.4
> >  4 India            1990   68.4
> >  5 Egypt            1990   66.1
> >  6 South Asia       1990   65.2
> >  7 South Asia       1990   65.2
> >  8 Cameroon         1990   65.0
> >  9 Mauritania       1990   64.8
> > 10 Nepal            1990   64.0
> > # ℹ 680 more rows
…
[*Back to top*](#contents)

We use the `filter()` function to choose a subset of the rows from our data, but when we want to choose a subset of columns from our data we use `select()`. For example, if we only wanted to see the year (`year_id`) and median values, we can do:


~~~
ambient_pollution_dirty %>%
  select(year_id, median)
~~~
{: .language-r}



~~~
# A tibble: 9,660 × 2
   year_id median
     <dbl>  <dbl>
 1    1990   40.0
 2    1995   38.9
 3    2000   40.6
 4    2005   40.6
 5    2010   42.7
 6    2011   44.4
 7    2012   46.1
 8    2013   47.1
 9    2014   47.3
10    2015   46.1
# ℹ 9,650 more rows
…
We can also use `select()` to drop/remove particular columns by putting a minus sign (`-`) in front of the column name. For example, if we want everything but the `year_id` column, we can do:


~~~
ambient_pollution_dirty %>%
  select(-year_id)
~~~
{: .language-r}



~~~
# A tibble: 9,660 × 2
   location_name median
   <chr>          <dbl>
 1 Global          40.0
 2 Global          38.9
 3 Global          40.6
 4 Global          40.6
 5 Global          42.7
 6 Global          44.4
 7 Global          46.1
 8 Global          47.1
 9 Global          47.3
10 Global          46.1
# ℹ 9,650 more rows
…
> 
> > ## Solution: 
> > There are multiple ways to do this exercise. Here are two different possibilities. 
> > 
> > 
> > ~~~
> > ambient_pollution_dirty %>%
> >   select(location_name, year_id)
> > ~~~
> > {: .language-r}
> > 
> > 
> > 
> > ~~~
> > # A tibble: 9,660 × 2
> >    location_name year_id
> >    <chr>           <dbl>
> >  1 Global           1990
> >  2 Global           1995
> >  3 Global           2000
> >  4 Global           2005
> >  5 Global           2010
> >  6 Global           2011
> >  7 Global           2012
> >  8 Global           2013
> >  9 Global           2014
> > 10 Global           2015
> > # ℹ 9,650 more rows
> > ~~~
> > {: .output}
> > 
> > ~~~
> > ambient_pollution_dirty %>%
> >   select(-median)
> > ~~~
> > {: .language-r}
> > 
> > 
> > 
> > ~~~
> > # A tibble: 9,660 × 2
> >    location_name year_id
> >    <chr>           <dbl>
> >  1 Global           1990
> >  2 Global           1995
> >  3 Global           2000
> >  4 Global           2005
> >  5 Global           2010
> >  6 Global           2011
> >  7 Global           2012
> >  8 Global           2013
> >  9 Global           2014
> > 10 Global           2015
> > # ℹ 9,650 more rows
…
Let's do this for our `pollution_1990_dirty` dataset:


~~~
pollution_1990_dirty %>%
    group_by(location_name) %>%
    count() %>%
    arrange(-n)
~~~
{: .language-r}



~~~
# A tibble: 685 × 2
# Groups:   location_name [685]
   location_name                    n
   <chr>                        <int>
 1 Georgia                          2
 2 North Africa and Middle East     2
 3 South Asia                       2
 4 Stockholm                        2
 5 Sweden except Stockholm          2
 6 Aceh                             1
 7 Acre                             1
 8 Afghanistan                      1
 9 Africa                           1
10 African Region                   1
# ℹ 675 more rows
…
It's kind of hard to find the ones wth two values. Let's arrange the counts from highest to lowest using the `arrange()` function to make it easier to see:
 

~~~
pollution_1990_dirty %>%
    group_by(location_name) %>%
    count() %>%
    arrange(-n)
~~~
{: .language-r}



~~~
# A tibble: 685 × 2
# Groups:   location_name [685]
   location_name                    n
   <chr>                        <int>
 1 Georgia                          2
 2 North Africa and Middle East     2
 3 South Asia                       2
 4 Stockholm                        2
 5 Sweden except Stockholm          2
 6 Aceh                             1
 7 Acre                             1
 8 Afghanistan                      1
 9 Africa                           1
10 African Region                   1
# ℹ 675 more rows
…
> HINT: You might get an unexpected result. Look at the code we used to make pollution_1990 to try to figure out why. 
> 
> > ## Example solution: 
> > 
> > ~~~
> > pollution_1990 %>%
> >   distinct() %>%
> >   count()
> > ~~~
> > {: .language-r}
> > 
> > 
> > 
> > ~~~
> > # A tibble: 685 × 2
> > # Groups:   location_name [685]
> >    location_name      n
> >    <chr>          <int>
> >  1 Aceh               1
> >  2 Acre               1
> >  3 Afghanistan        1
> >  4 Africa             1
> >  5 African Region     1
> >  6 African Union      1
> >  7 Aguascalientes     1
> >  8 Aichi              1
> >  9 Akershus           1
> > 10 Akita              1
> > # ℹ 675 more rows
…
~~~
Joining with `by = join_by(country)`
~~~
{: .output}



~~~
# A tibble: 191 × 7
    year country            continent    pop smoke_pct lung_cancer_pct pollution
   <dbl> <chr>              <chr>      <dbl>     <dbl>           <dbl>     <dbl>
 1  1990 Afghanistan        Asia      1.24e7      3.12          0.0127     46.2 
 2  1990 Albania            Europe    3.29e6     24.2           0.0327     23.8 
 3  1990 Algeria            Africa    2.58e7     18.9           0.0118     29.4 
 4  1990 Andorra            Europe    5.45e4     36.6           0.0609     13.4 
 5  1990 Angola             Africa    1.18e7     12.5           0.0139     27.7 
 6  1990 Antigua and Barbu… North Am… 6.25e4      6.80          0.0105     16.2 
 7  1990 Argentina          South Am… 3.26e7     30.4           0.0344     14.8 
 8  1990 Armenia            Europe    3.54e6     30.5           0.0441     30.0 
 9  1990 Australia          Oceania   1.71e7     29.3           0.0599      7.13
10  1990 Austria            Europe    7.68e6     35.4           0.0439     20.3 
# ℹ 181 more rows
…
Let's use `case_when()` to change "Viet Nam" to "Vietnam".


~~~
pollution_1990_clean %>%
  mutate(country = case_when(country == "Viet Nam" ~ "Vietnam", 
                             TRUE ~ country))
~~~
{: .language-r}



~~~
# A tibble: 685 × 2
# Groups:   country [685]
   country                                pollution
   <chr>                                      <dbl>
 1 Global                                      40.0
 2 Southeast Asia, East Asia, and Oceania      41.3
 3 East Asia                                   45.8
 4 China                                       46.4
 5 Democratic People's Republic of Korea       39.3
 6 Taiwan                                      21.7
 7 Southeast Asia                              28.3
 8 Cambodia                                    26.5
 9 Indonesia                                   25.5
10 Lao People's Democratic Republic            25.1
# ℹ 675 more rows
…
> 
> > ## One possible solution: 
> > 
> > ~~~
> > pollution_1990_clean %>%
> >   mutate(country = case_when(country == "Viet Nam" ~ "Vietnam", 
> >                              country == "Slovakia" ~ "Slovak Republic",
> >                              TRUE ~ country))
> > ~~~
> > {: .language-r}
> > 
> > 
> > 
> > ~~~
> > # A tibble: 685 × 2
> > # Groups:   country [685]
> >    country                                pollution
> >    <chr>                                      <dbl>
> >  1 Global                                      40.0
> >  2 Southeast Asia, East Asia, and Oceania      41.3
> >  3 East Asia                                   45.8
> >  4 China                                       46.4
> >  5 Democratic People's Republic of Korea       39.3
> >  6 Taiwan                                      21.7
> >  7 Southeast Asia                              28.3
> >  8 Cambodia                                    26.5
> >  9 Indonesia                                   25.5
> > 10 Lao People's Democratic Republic            25.1
> > # ℹ 675 more rows
…
