…
~~~
`summarise()` has grouped output by 'country', 'continent'. You can override
using the `.groups` argument.
~~~
{: .output}



~~~
# A tibble: 191 × 32
# Groups:   country, continent [191]
   country     continent `1990` `1991` `1992` `1993` `1994` `1995` `1996` `1997`
   <chr>       <chr>      <dbl>  <dbl>  <dbl>  <dbl>  <dbl>  <dbl>  <dbl>  <dbl>
 1 Afghanistan Asia        3.12   3.29   3.53   3.77   4.00   4.25   4.53   4.82
 2 Albania     Europe     24.2   24.1   24.0   24.0   23.9   23.8   23.8   23.9 
 3 Algeria     Africa     18.9   18.7   18.6   18.4   18.2   18.0   17.8   17.6 
 4 Andorra     Europe     36.6   36.5   36.3   36.2   35.9   35.5   35.2   34.9 
 5 Angola      Africa     12.5   12.4   12.2   12.0   11.8   11.5   11.3   11.0 
 6 Antigua an… North Am…   6.80   6.94   7.06   7.17   7.27   7.36   7.43   7.47
 7 Argentina   South Am…  30.4   30.1   29.9   29.7   29.5   29.4   29.2   29.1 
 8 Armenia     Europe     30.5   30.4   30.2   30.0   29.9   29.7   29.6   29.5 
 9 Australia   Oceania    29.3   28.8   28.4   27.9   27.5   27.0   26.4   25.9 
10 Austria     Europe     35.4   35.8   36.2   36.6   37.0   37.4   37.8   38.1 
# … with 181 more rows, and 22 more variables: `1998` <dbl>, `1999` <dbl>,
#   `2000` <dbl>, `2001` <dbl>, `2002` <dbl>, `2003` <dbl>, `2004` <dbl>,
#   `2005` <dbl>, `2006` <dbl>, `2007` <dbl>, `2008` <dbl>, `2009` <dbl>,
#   `2010` <dbl>, `2011` <dbl>, `2012` <dbl>, `2013` <dbl>, `2014` <dbl>,
#   `2015` <dbl>, `2016` <dbl>, `2017` <dbl>, `2018` <dbl>, `2019` <dbl>
…
> > ~~~
> > {: .language-r}
> > 
> > 
> > 
> > ~~~
> > `summarise()` has grouped output by 'country', 'continent'. You can override
> > using the `.groups` argument.
> > ~~~
> > {: .output}
> > 
> > 
> > 
> > ~~~
> > # A tibble: 42 × 3
> > # Groups:   country, continent [42]
> >    country                continent  diff
> >    <chr>                  <chr>     <dbl>
> >  1 Bosnia and Herzegovina Europe     9.33
> >  2 Lebanon                Asia       7.91
> >  3 Afghanistan            Asia       6.08
> >  4 Albania                Europe     5.23
> >  5 Indonesia              Asia       5.07
> >  6 Saudi Arabia           Asia       4.21
> >  7 Uzbekistan             Asia       4.04
> >  8 Kiribati               Oceania    3.68
> >  9 Mali                   Africa     3.03
> > 10 Djibouti               Africa     2.83
> > # … with 32 more rows
…
