…
ℹ Use `spec()` to retrieve the full column specification for this data.
ℹ Specify the column types or set `show_col_types = FALSE` to quiet this message.
~~~
{: .output}



~~~
# A tibble: 9,660 × 3
   location_name year_id median
   <chr>           <dbl>  <dbl>
 1 Global           1990   40.0
 2 Global           1995   38.9
 3 Global           2000   40.6
 4 Global           2005   40.6
 5 Global           2010   42.7
 6 Global           2011   44.4
 7 Global           2012   46.1
 8 Global           2013   47.1
 9 Global           2014   47.3
10 Global           2015   46.1
# … with 9,650 more rows
…
~~~
ambient_pollution_dirty
~~~
{: .language-r}



~~~
# A tibble: 9,660 × 3
   location_name year_id median
   <chr>           <dbl>  <dbl>
 1 Global           1990   40.0
 2 Global           1995   38.9
 3 Global           2000   40.6
 4 Global           2005   40.6
 5 Global           2010   42.7
 6 Global           2011   44.4
 7 Global           2012   46.1
 8 Global           2013   47.1
 9 Global           2014   47.3
10 Global           2015   46.1
# … with 9,650 more rows
…
~~~
Joining, by = "country"
~~~
{: .output}



~~~
# A tibble: 191 × 6
   country         continent        pop smoke_pct lung_cancer_pct pollution
   <chr>           <chr>          <dbl>     <dbl>           <dbl>     <dbl>
 1 Myanmar         Asia        54045422      23.9          0.0225     29.3 
 2 China           Asia      1407745000      26.9          0.0590     47.7 
 3 Cambodia        Asia        16486542      21.5          0.0247     21.5 
 4 Philippines     Asia       108116622      24.7          0.0184     18.7 
 5 Maldives        Asia          530957      31.4          0.0102     10.8 
 6 Tonga           Oceania       104497      27.4          0.0281      9.55
 7 Vietnam         Asia        96462108      24.3          0.0302     NA   
 8 Indonesia       Asia       270625567      31.0          0.0232     19.3 
 9 Timor-Leste     Asia         1293120      35.0          0.0194     15.1 
10 Solomon Islands Oceania       669821      35.8          0.0334     11.5 
# … with 181 more rows
~~~
{: .output}

We now have data from both datasets joined together in the same dataframe. Notice that the number of rows here, 191, is the same as the number of rows in the `smoking_2019` dataset? One thing to note about the output is that `left_join()` tells us that that it joined by "country". We can make this explicit using the "by" argument in the join functions


~~~
left_join(smoking_2019, pollution_2019_clean, by="country")
~~~
{: .language-r}



~~~
# A tibble: 191 × 6
   country         continent        pop smoke_pct lung_cancer_pct pollution
   <chr>           <chr>          <dbl>     <dbl>           <dbl>     <dbl>
 1 Myanmar         Asia        54045422      23.9          0.0225     29.3 
 2 China           Asia      1407745000      26.9          0.0590     47.7 
 3 Cambodia        Asia        16486542      21.5          0.0247     21.5 
 4 Philippines     Asia       108116622      24.7          0.0184     18.7 
 5 Maldives        Asia          530957      31.4          0.0102     10.8 
 6 Tonga           Oceania       104497      27.4          0.0281      9.55
 7 Vietnam         Asia        96462108      24.3          0.0302     NA   
 8 Indonesia       Asia       270625567      31.0          0.0232     19.3 
 9 Timor-Leste     Asia         1293120      35.0          0.0194     15.1 
10 Solomon Islands Oceania       669821      35.8          0.0334     11.5 
# … with 181 more rows
…
