R for Plotting – DiscovR Workshop Curriculum
…
Note In anything before R 4.0, categorical variables used to be read in as factors, which are special data objects that are used to store categorical data and have limited numbers of unique values. The unique values of a factor are tracked via the “levels” of a factor. A factor will always remember all of its levels even if the values don’t actually appear in your data. The factor will also remember the order of the levels and will always print values out in the same order (by default this order is alphabetical).

If your columns are stored as character values but you need factors for plotting, ggplot will convert them to factors for you as needed.

Now let’s look at the data a bit more. 
In the Environment tab in the upper right corner of RStudio, lou will now see gapminder_1997 listed.
If you click on it, it will pop up in a tab next to your script.

After we’ve reviewed the data, you’ll want to make sure to click the tab in the upper left to return to your gdp_population.R file so we can start writing some code.

Another way to look at the data is to print it out to the console:

gapminder_1997

# A tibble: 142 × 5
   country           pop continent lifeExp gdpPercap
   <chr>           <dbl> <chr>       <dbl>     <dbl>
 1 Afghanistan  22227415 Asia         41.8      635.
 2 Albania       3428038 Europe       73.0     3193.
 3 Algeria      29072015 Africa       69.2     4797.
 4 Angola        9875024 Africa       41.0     2277.
 5 Argentina    36203463 Americas     73.3    10967.
 6 Australia    18565243 Oceania      78.8    26998.
 7 Austria       8069876 Europe       77.5    29096.
 8 Bahrain        598561 Asia         73.9    20292.
 9 Bangladesh  123315288 Asia         59.4      973.
10 Belgium      10199787 Europe       77.5    27561.
# … with 132 more rows
…
