DiscovR Workshop Curriculum
…
Note In anything before R 4.0, categorical variables used to be read in as factors, which are special data objects that are used to store categorical data and have limited numbers of unique values. The unique values of a factor are tracked via the “levels” of a factor. A factor will always remember all of its levels even if the values don’t actually appear in your data. The factor will also remember the order of the levels and will always print values out in the same order (by default this order is alphabetical).

If your columns are stored as character values but you need factors for plotting, ggplot will convert them to factors for you as needed.

Now let’s look at the data a bit more. 
In the Environment tab in the upper right corner of RStudio, lou will now see gapminder_1997 listed.
If you click on it, it will pop up in a tab next to your script.

After we’ve reviewed the data, you’ll want to make sure to click the tab in the upper left to return to your gdp_population.R file so we can start writing some code.

Another way to look at the data is to print it out to the console:

gapminder_1997

# A tibble: 142 × 5
   country           pop continent lifeExp gdpPercap
   <chr>           <dbl> <chr>       <dbl>     <dbl>
 1 Afghanistan  22227415 Asia         41.8      635.
 2 Albania       3428038 Europe       73.0     3193.
 3 Algeria      29072015 Africa       69.2     4797.
 4 Angola        9875024 Africa       41.0     2277.
 5 Argentina    36203463 Americas     73.3    10967.
 6 Australia    18565243 Oceania      78.8    26998.
 7 Austria       8069876 Europe       77.5    29096.
 8 Bahrain        598561 Asia         73.9    20292.
 9 Bangladesh  123315288 Asia         59.4      973.
10 Belgium      10199787 Europe       77.5    27561.
# … with 132 more rows
…
Make new variables with mutate()

Back to top

Each time we ran summarize(), we got back fewer rows than passed in. We either got one row back, or one row per group. But sometimes we want to create a new column in our data without changing the number of rows. The function we use to create new columns is called mutate().

We have a column for the population and the GDP per capita. If we wanted to get the total GDP, we could multiply the per capita GDP values by the total population. Here’s what such a mutate() command would look like:

gapminder_data %>%
  mutate(gdp = pop * gdpPercap)

# A tibble: 1,704 × 7
   country      year      pop continent lifeExp gdpPercap          gdp
   <chr>       <dbl>    <dbl> <chr>       <dbl>     <dbl>        <dbl>
 1 Afghanistan  1952  8425333 Asia         28.8      779.  6567086330.
 2 Afghanistan  1957  9240934 Asia         30.3      821.  7585448670.
 3 Afghanistan  1962 10267083 Asia         32.0      853.  8758855797.
 4 Afghanistan  1967 11537966 Asia         34.0      836.  9648014150.
 5 Afghanistan  1972 13079460 Asia         36.1      740.  9678553274.
 6 Afghanistan  1977 14880372 Asia         38.4      786. 11697659231.
 7 Afghanistan  1982 12881816 Asia         39.9      978. 12598563401.
 8 Afghanistan  1987 13867957 Asia         40.8      852. 11820990309.
 9 Afghanistan  1992 16317921 Asia         41.7      649. 10595901589.
10 Afghanistan  1997 22227415 Asia         41.8      635. 14121995875.
# … with 1,694 more rows

This will add a new column called “gdp” to our data. We use the column names as if they were regular values that we want to perform mathematical operations on and provide the name in front of an equals sign like we have done with summarize()

  mutate()

  We can also multiply by constants or other numbers using mutate - remember how in the plotting lesson we made a plot with population in millions? Try making a new column for this dataframe called popInMillions that is the population in million.

    Solution:

gapminder_data %>%  
mutate(gdp = pop * gdpPercap, popInMillions = pop / 1000000)  

# A tibble: 1,704 × 8
   country      year      pop continent lifeExp gdpPercap      gdp popInMillions
   <chr>       <dbl>    <dbl> <chr>       <dbl>     <dbl>    <dbl>         <dbl>
 1 Afghanistan  1952  8425333 Asia         28.8      779.  6.57e 9          8.43
 2 Afghanistan  1957  9240934 Asia         30.3      821.  7.59e 9          9.24
 3 Afghanistan  1962 10267083 Asia         32.0      853.  8.76e 9         10.3 
 4 Afghanistan  1967 11537966 Asia         34.0      836.  9.65e 9         11.5 
 5 Afghanistan  1972 13079460 Asia         36.1      740.  9.68e 9         13.1 
 6 Afghanistan  1977 14880372 Asia         38.4      786.  1.17e10         14.9 
 7 Afghanistan  1982 12881816 Asia         39.9      978.  1.26e10         12.9 
 8 Afghanistan  1987 13867957 Asia         40.8      852.  1.18e10         13.9 
 9 Afghanistan  1992 16317921 Asia         41.7      649.  1.06e10         16.3 
10 Afghanistan  1997 22227415 Asia         41.8      635.  1.41e10         22.2 
# … with 1,694 more rows

Subset columns using select()

Back to top

We use the filter() function to choose a subset of the rows from our data, but when we want to choose a subset of columns from our data we use select(). For example, if we only wanted to see the population (“pop”) and year values, we can do:

gapminder_data %>%
  select(pop, year)

# A tibble: 1,704 × 2
        pop  year
      <dbl> <dbl>
 1  8425333  1952
 2  9240934  1957
 3 10267083  1962
 4 11537966  1967
 5 13079460  1972
 6 14880372  1977
 7 12881816  1982
 8 13867957  1987
 9 16317921  1992
10 22227415  1997
# … with 1,694 more rows

We can also use select() to drop/remove particular columns by putting a minus sign (-) in front of the column name. For example, if we want everything but the continent column, we can do:

gapminder_data %>%
  select(-continent)

# A tibble: 1,704 × 5
   country      year      pop lifeExp gdpPercap
   <chr>       <dbl>    <dbl>   <dbl>     <dbl>
 1 Afghanistan  1952  8425333    28.8      779.
 2 Afghanistan  1957  9240934    30.3      821.
 3 Afghanistan  1962 10267083    32.0      853.
 4 Afghanistan  1967 11537966    34.0      836.
 5 Afghanistan  1972 13079460    36.1      740.
 6 Afghanistan  1977 14880372    38.4      786.
 7 Afghanistan  1982 12881816    39.9      978.
 8 Afghanistan  1987 13867957    40.8      852.
 9 Afghanistan  1992 16317921    41.7      649.
10 Afghanistan  1997 22227415    41.8      635.
# … with 1,694 more rows

  selecting columns

  Create a dataframe with only the country, continent, year, and lifeExp columns.

    Solution:

    There are multiple ways to do this exercise. Here are two different possibilities.

gapminder_data %>%
  select(country, continent, year, lifeExp)

# A tibble: 1,704 × 4
   country     continent  year lifeExp
   <chr>       <chr>     <dbl>   <dbl>
 1 Afghanistan Asia       1952    28.8
 2 Afghanistan Asia       1957    30.3
 3 Afghanistan Asia       1962    32.0
 4 Afghanistan Asia       1967    34.0
 5 Afghanistan Asia       1972    36.1
 6 Afghanistan Asia       1977    38.4
 7 Afghanistan Asia       1982    39.9
 8 Afghanistan Asia       1987    40.8
 9 Afghanistan Asia       1992    41.7
10 Afghanistan Asia       1997    41.8
# … with 1,694 more rows

gapminder_data %>%
  select(-pop, -gdpPercap)

# A tibble: 1,704 × 4
   country      year continent lifeExp
   <chr>       <dbl> <chr>       <dbl>
 1 Afghanistan  1952 Asia         28.8
 2 Afghanistan  1957 Asia         30.3
 3 Afghanistan  1962 Asia         32.0
 4 Afghanistan  1967 Asia         34.0
 5 Afghanistan  1972 Asia         36.1
 6 Afghanistan  1977 Asia         38.4
 7 Afghanistan  1982 Asia         39.9
 8 Afghanistan  1987 Asia         40.8
 9 Afghanistan  1992 Asia         41.7
10 Afghanistan  1997 Asia         41.8
# … with 1,694 more rows

  Bonus: Using helper functions with select()

  The select() function has a bunch of helper functions that are handy if you are working with a dataset that has a lot of columns. You can see these helper functions on the ?select help page. For example, let’s say we wanted to select the year column and all the columns that start with the letter “c”. You can do that with:

gapminder_data %>%
  select(year, starts_with("c"))

# A tibble: 1,704 × 3
    year country     continent
   <dbl> <chr>       <chr>    
 1  1952 Afghanistan Asia     
 2  1957 Afghanistan Asia     
 3  1962 Afghanistan Asia     
 4  1967 Afghanistan Asia     
 5  1972 Afghanistan Asia     
 6  1977 Afghanistan Asia     
 7  1982 Afghanistan Asia     
 8  1987 Afghanistan Asia     
 9  1992 Afghanistan Asia     
10  1997 Afghanistan Asia     
# … with 1,694 more rows

  This returns just the three columns we are interested in.

    Using select() with a helper function

    Find a helper function on the help page that will choose all the columns that have “p” as their last letter (ie: “pop”,”lifeExp”,”gdpPerCap”)

      Solution

      The helper function ends_with() can help us here.

gapminder_data %>%
select(ends_with("p"))

# A tibble: 1,704 × 3
        pop lifeExp gdpPercap
      <dbl>   <dbl>     <dbl>
 1  8425333    28.8      779.
 2  9240934    30.3      821.
 3 10267083    32.0      853.
 4 11537966    34.0      836.
 5 13079460    36.1      740.
 6 14880372    38.4      786.
 7 12881816    39.9      978.
 8 13867957    40.8      852.
 9 16317921    41.7      649.
10 22227415    41.8      635.
# … with 1,694 more rows

Changing the shape of the data

Back to top

Data comes in many shapes and sizes, and one way we classify data is either “wide” or “long.” Data that is “long” has one row per observation. The gapminder_data data is in a long format. We have one row for each country for each year and each different measurement for that country is in a different column. We might describe this data as “tidy” because it makes it easy to work with ggplot2 and dplyr functions (this is where the “tidy” in “tidyverse” comes from). As tidy as it may be, sometimes we may want our data in a “wide” format. Typically in “wide” format each row represents a group of observations and each value is placed in a different column rather than a different row. For example maybe we want only one row per country and want to spread the life expectancy values into different columns (one for each year).

The tidyr package contains the functions pivot_wider and pivot_longer that make it easy to switch between the two formats. The tidyr package is included in the tidyverse package so we don’t need to do anything to load it.

gapminder_data %>%
  select(country, continent, year, lifeExp) %>%
  pivot_wider(names_from = year, values_from = lifeExp )

# A tibble: 142 × 14
   country     continent `1952` `1957` `1962` `1967` `1972` `1977` `1982` `1987`
   <chr>       <chr>      <dbl>  <dbl>  <dbl>  <dbl>  <dbl>  <dbl>  <dbl>  <dbl>
 1 Afghanistan Asia        28.8   30.3   32.0   34.0   36.1   38.4   39.9   40.8
 2 Albania     Europe      55.2   59.3   64.8   66.2   67.7   68.9   70.4   72  
 3 Algeria     Africa      43.1   45.7   48.3   51.4   54.5   58.0   61.4   65.8
 4 Angola      Africa      30.0   32.0   34     36.0   37.9   39.5   39.9   39.9
 5 Argentina   Americas    62.5   64.4   65.1   65.6   67.1   68.5   69.9   70.8
 6 Australia   Oceania     69.1   70.3   70.9   71.1   71.9   73.5   74.7   76.3
 7 Austria     Europe      66.8   67.5   69.5   70.1   70.6   72.2   73.2   74.9
 8 Bahrain     Asia        50.9   53.8   56.9   59.9   63.3   65.6   69.1   70.8
 9 Bangladesh  Asia        37.5   39.3   41.2   43.5   45.3   46.9   50.0   52.8
10 Belgium     Europe      68     69.2   70.2   70.9   71.4   72.8   73.9   75.4
# … with 132 more rows, and 4 more variables: `1992` <dbl>, `1997` <dbl>,
#   `2002` <dbl>, `2007` <dbl>
…
